data_exp
…
dev_data

# A tibble: 700 × 11
   user_id dev_mod    op_sys app_use_time screen_time bat_drain num_apps dat_use
   <chr>   <fct>      <fct>         <dbl>       <dbl>     <dbl>    <dbl>   <dbl>
 1 1       Google Pi… Andro…          393         6.4      1872       67    1122
 2 2       OnePlus 9  Andro…          268         4.7      1331       42     944
 3 3       Xiaomi Mi… Andro…          154         4         761       32     322
 4 4       Google Pi… Andro…          239         4.8      1676       56     871
 5 5       iPhone 12  iOS             187         4.3      1367       58     988
 6 6       Google Pi… Andro…           99         2         940       35     564
 7 7       Samsung G… Andro…          350         7.3      1802       66    1054
 8 8       OnePlus 9  Andro…          543        11.4      2956       82    1702
 9 9       Samsung G… Andro…          340         7.7      2138       75    1053
10 10      iPhone 12  iOS             424         6.6      1957       75    1301
# ℹ 690 more rows
# ℹ 3 more variables: age <dbl>, gender <fct>, user_class <fct>
…
